<?xml version="1.0" encoding="utf-8"?><svg width="20" height="18" viewBox="0 0 20 18" fill="none" xmlns="http://www.w3.org/2000/svg">
<path d="M9.33801 15.2222C13.5009 15.2222 16.8756 12.0385 16.8756 8.11111C16.8756 4.18375 13.5009 1 9.33801 1C5.17511 1 1.80042 4.18375 1.80042 8.11111C1.80042 12.0385 5.17511 15.2222 9.33801 15.2222Z" stroke="#4F4F4F" stroke-width="2" stroke-linecap="round" stroke-linejoin="round"/>
<path d="M18.7602 17L14.6616 13.1333" stroke="#4F4F4F" stroke-width="2" stroke-linecap="round" stroke-linejoin="round"/>
</svg>
