<?xml version="1.0" encoding="utf-8"?><svg width="16" height="16" viewBox="0 0 16 16" fill="none" xmlns="http://www.w3.org/2000/svg">
<path d="M7.66667 14.6552C11.3486 14.6552 14.3333 11.5984 14.3333 7.82759C14.3333 4.05681 11.3486 1 7.66667 1C3.98477 1 1 4.05681 1 7.82759C1 11.5984 3.98477 14.6552 7.66667 14.6552Z" stroke="#B1B1E6" stroke-width="2" stroke-linecap="round" stroke-linejoin="round"/>
<path d="M1 7.82758H14.3333" stroke="#B1B1E6" stroke-width="2" stroke-linecap="round" stroke-linejoin="round"/>
<path d="M7.66667 1C9.33419 2.86963 10.2818 5.29594 10.3333 7.82759C10.2818 10.3592 9.33419 12.7855 7.66667 14.6552C5.99915 12.7855 5.0515 10.3592 5 7.82759C5.0515 5.29594 5.99915 2.86963 7.66667 1V1Z" stroke="#B1B1E6" stroke-width="2" stroke-linecap="round" stroke-linejoin="round"/>
</svg>
